{
	"info": {
		"_postman_id": "b9463685-62c0-44f5-b375-01b08539664d",
		"name": "Jobsity Interview",
		"schema": "https://schema.getpostman.com/json/collection/v2.1.0/collection.json"
	},
	"item": [
		{
			"name": "Get stock price",
			"request": {
				"auth": {
					"type": "bearer",
					"bearer": [
						{
							"key": "token",
							"value": "eyJhbGciOiJIUzI1NiIsInR5cCI6IkpXVCJ9.eyJ1c2VybmFtZSI6ImNhaW8iLCJwZXJtaXNzaW9uTGV2ZWwiOiJ1c2VyIiwiaWF0IjoxNjM5OTgwNDk2fQ.fCHNvfNyqaUSI3bykhP7j1-svA0l_DtIoPeGJvkTQQk",
							"type": "string"
						}
					]
				},
				"method": "GET",
				"header": [],
				"url": {
					"raw": "localhost:3333/api/stock/code/nvda.us",
					"host": [
						"localhost"
					],
					"port": "3333",
					"path": [
						"api",
						"stock",
						"code",
						"nvda.us"
					]
				}
			},
			"response": []
		},
		{
			"name": "Create User",
			"request": {
				"auth": {
					"type": "bearer",
					"bearer": [
						{
							"key": "token",
							"value": "eyJhbGciOiJIUzI1NiJ9.eyJzdWIiOiJQb3J0YWwtU2VydmVyIiwiYXVkIjoiUkRTTC1BdXRoIiwiaXNzIjoiUkRTTC1BdXRoIiwiYXV0aC1sZXZlbCI6IkxFVkVMMUZBIiwiZXhwIjoxNjM5Mjc0MjE5LCJpYXQiOjE2MzkyNzMwMTl9.JJqtKGr_uatlNdTGbnW9xzBJ2lARHHFMPCSwmhx5usg",
							"type": "string"
						}
					]
				},
				"method": "POST",
				"header": [],
				"body": {
					"mode": "raw",
					"raw": "{\n    \"username\": \"caio.adm\",\n    \"permission\": \"admin\"\n}",
					"options": {
						"raw": {
							"language": "json"
						}
					}
				},
				"url": {
					"raw": "localhost:3333/api/auth/register",
					"host": [
						"localhost"
					],
					"port": "3333",
					"path": [
						"api",
						"auth",
						"register"
					]
				}
			},
			"response": []
		},
		{
			"name": "Authenticate (login)",
			"request": {
				"auth": {
					"type": "bearer",
					"bearer": [
						{
							"key": "token",
							"value": "eyJhbGciOiJIUzI1NiJ9.eyJzdWIiOiJQb3J0YWwtU2VydmVyIiwiYXVkIjoiUkRTTC1BdXRoIiwiaXNzIjoiUkRTTC1BdXRoIiwiYXV0aC1sZXZlbCI6IkxFVkVMMUZBIiwiZXhwIjoxNjM5Mjc0MjE5LCJpYXQiOjE2MzkyNzMwMTl9.JJqtKGr_uatlNdTGbnW9xzBJ2lARHHFMPCSwmhx5usg",
							"type": "string"
						}
					]
				},
				"method": "POST",
				"header": [],
				"body": {
					"mode": "raw",
					"raw": "{\n    \"username\": \"caio.adm\",\n    \"password\": \"VM1TbwTRxloN8+HhlVWcIKyYSyaecJyG\"\n}",
					"options": {
						"raw": {
							"language": "json"
						}
					}
				},
				"url": {
					"raw": "localhost:3333/api/auth",
					"host": [
						"localhost"
					],
					"port": "3333",
					"path": [
						"api",
						"auth"
					]
				}
			},
			"response": []
		},
		{
			"name": "Get Stock Quote History",
			"request": {
				"auth": {
					"type": "bearer",
					"bearer": [
						{
							"key": "token",
							"value": "eyJhbGciOiJIUzI1NiIsInR5cCI6IkpXVCJ9.eyJ1c2VybmFtZSI6ImNhaW8iLCJwZXJtaXNzaW9uTGV2ZWwiOiJ1c2VyIiwiaWF0IjoxNjM5OTgyNjE0fQ.955TOhe32zeBdfvCAGuPF5RQ2A4qUX9OSacqSwye7xk",
							"type": "string"
						}
					]
				},
				"method": "GET",
				"header": [],
				"url": {
					"raw": "localhost:3333/api/stock/history",
					"host": [
						"localhost"
					],
					"port": "3333",
					"path": [
						"api",
						"stock",
						"history"
					]
				}
			},
			"response": []
		},
		{
			"name": "Get Stock Quote Stats",
			"request": {
				"auth": {
					"type": "bearer",
					"bearer": [
						{
							"key": "token",
							"value": "eyJhbGciOiJIUzI1NiIsInR5cCI6IkpXVCJ9.eyJ1c2VybmFtZSI6ImNhaW8uYWRtIiwicGVybWlzc2lvbkxldmVsIjoiYWRtaW4iLCJpYXQiOjE2NDAwMzAyMTJ9.3zKiC0i_K_BhtT2SbhvBOQDF5dHGGCROFeH-ohbkZQo",
							"type": "string"
						}
					]
				},
				"method": "GET",
				"header": [],
				"url": {
					"raw": "localhost:3333/api/stock/stats",
					"host": [
						"localhost"
					],
					"port": "3333",
					"path": [
						"api",
						"stock",
						"stats"
					]
				}
			},
			"response": []
		}
	],
	"auth": {
		"type": "bearer",
		"bearer": [
			{
				"key": "token",
				"value": "eyJhbGciOiJIUzI1NiIsInR5cCI6IkpXVCJ9.eyJ1c2VybmFtZSI6ImNhaW8uYWRtIiwicGVybWlzc2lvbkxldmVsIjoiYWRtaW4iLCJpYXQiOjE2NDAwMzAyMTJ9.3zKiC0i_K_BhtT2SbhvBOQDF5dHGGCROFeH-ohbkZQo",
				"type": "string"
			}
		]
	},
	"event": [
		{
			"listen": "prerequest",
			"script": {
				"type": "text/javascript",
				"exec": [
					""
				]
			}
		},
		{
			"listen": "test",
			"script": {
				"type": "text/javascript",
				"exec": [
					""
				]
			}
		}
	]
}